Name,WeightClassKg,Division,Best3SquatKg,Best3BenchKg,Best3DeadliftKg,TotalKg,Sex,Event,Equipment,Place,Team
Donna Marts,60,F-O,108.86,65.77,117.93,292.57,F,SBD,Single-ply,1,
Hannah Cowgill,67.5,F-O,108.86,61.23,127.01,297.1,F,SBD,Single-ply,1,
Eula Compton,67.5,F-O,65.77,79.38,145.15,290.3,F,SBD,Single-ply,2,
Kaci Williams,75,F-O,129.27,72.57,154.22,356.07,F,SBD,Single-ply,1,
Mary Jackson,75,F-O,97.52,58.97,111.13,267.62,F,SBD,Single-ply,2,
Bryony Schwan,75,F-O,83.91,40.82,106.59,231.33,F,SBD,Single-ply,3,
Holly Oxford,90,F-O,163.29,102.06,165.56,430.91,F,SBD,Single-ply,1,
Donna Marts,60,F-M1,108.86,65.77,117.93,292.57,F,SBD,Single-ply,1,
Eula Compton,67.5,F-M5,65.77,79.38,145.15,290.3,F,SBD,Single-ply,1,
Bryony Schwan,75,F-M1,83.91,40.82,106.59,231.33,F,SBD,Single-ply,1,
Holly Oxford,90,F-M2,163.29,102.06,165.56,430.91,F,SBD,Single-ply,1,
Spencer Myers,60,M-O,161.03,115.67,195.04,471.74,M,SBD,Single-ply,1,
Mike Haynes,67.5,M-O,170.1,129.27,210.92,510.29,M,SBD,Single-ply,1,
Ben Butzlaff,67.5,M-O,158.76,79.38,165.56,403.7,M,SBD,Single-ply,2,
Cutter Murphy,67.5,M-O,113.4,79.38,129.27,322.05,M,SBD,Single-ply,3,
Brian Phillips,75,M-O,190.51,117.93,199.58,508.02,M,SBD,Single-ply,1,
Mark Stacy,75,M-O,142.88,113.4,181.44,437.72,M,SBD,Single-ply,2,
Brian Black,75,M-O,124.74,120.2,170.1,415.04,M,SBD,Single-ply,3,
Chris Wessells,82.5,M-O,142.88,115.67,165.56,424.11,M,SBD,Single-ply,1,
Jim Lukens,90,M-O,197.31,147.42,213.19,557.92,M,SBD,Single-ply,1,
Justin Barrett,90,M-O,163.29,120.2,208.65,492.15,M,SBD,Single-ply,2,
Scott Mecham,100,M-O,240.4,195.04,256.28,691.73,M,SBD,Single-ply,1,
Mark Salansky,100,M-O,263.08,181.44,238.14,682.66,M,SBD,Single-ply,2,
John Regis,100,M-O,226.8,183.7,217.72,628.23,M,SBD,Single-ply,3,
Phil Turner,100,M-O,181.44,124.74,238.14,544.31,M,SBD,Single-ply,4,
Richard Oliver,100,M-O,208.65,181.44,142.88,532.97,M,SBD,Single-ply,5,
Matt Riedy,110,M-O,263.08,197.31,303.91,764.3,M,SBD,Single-ply,1,
Sean Anderson,110,M-O,281.23,181.44,254.01,716.68,M,SBD,Single-ply,2,
Bart Wojcik,110,M-O,249.48,145.15,263.08,657.71,M,SBD,Single-ply,3,
Sam Schultz,125,M-O,294.84,192.78,294.84,782.45,M,SBD,Single-ply,1,
Andy Watson,125,M-O,251.74,190.51,260.82,703.07,M,SBD,Single-ply,2,
Andrew Snider,125+,M-O,278.96,215.46,272.16,766.57,M,SBD,Single-ply,1,
Jason Ward,125+,M-O,151.95,151.95,199.58,503.49,M,SBD,Single-ply,3,
Aaron Chavez,125+,M-O,238.14,199.58,294.84,732.55,M,SBD,Single-ply,2,
Brian Keller,67.5,M-T2,158.76,92.99,172.37,424.11,M,SBD,Single-ply,1,
Cutter Murphy,67.5,M-T3,113.4,79.38,129.27,322.05,M,SBD,Single-ply,1,
Jordan Rampersad,75,M-T3,124.74,88.45,158.76,371.95,M,SBD,Single-ply,1,
Zach Porter,125,M-T2,226.8,136.08,249.48,612.35,M,SBD,Single-ply,1,
Chris Wellard,125+,M-T3,197.31,99.79,188.24,485.34,M,SBD,Single-ply,1,
Brendon Rohan,67.5,M-M3,188.24,142.88,238.14,569.26,M,SBD,Single-ply,1,
Ed Wettach,82.5,M-M5,167.83,120.2,181.44,469.47,M,SBD,Single-ply,1,
Jim Lukens,90,M-M3,197.31,147.42,213.19,557.92,M,SBD,Single-ply,1,
Bud Bower,90,M-M5,226.8,149.69,204.12,580.6,M,SBD,Single-ply,1,
Allan Day,90,M-M6,136.08,86.18,151.95,374.21,M,SBD,Single-ply,1,
John Regis,100,M-M1,226.8,183.7,217.72,628.23,M,SBD,Single-ply,1,
Richard Oliver,100,M-M1,208.65,181.44,142.88,532.97,M,SBD,Single-ply,2,
Mark Salansky,100,M-M2,263.08,181.44,238.14,682.66,M,SBD,Single-ply,1,
Sean Anderson,110,M-M3,281.23,181.44,254.01,716.68,M,SBD,Single-ply,1,
Sam Schultz,125,M-M2,294.84,192.78,294.84,782.45,M,SBD,Single-ply,1,
Holly Oxford,90,F-O,,102.06,,102.06,F,B,Single-ply,1,
Holly Oxford,90,F-M2,,102.06,,102.06,F,B,Single-ply,1,
Vance Nakamura,60,M-O,,97.52,,97.52,M,B,Single-ply,1,
Kris Grover,67.5,M-O,,120.2,,120.2,M,B,Single-ply,1,
Adam Davis,75,M-O,,120.2,,120.2,M,B,Single-ply,1,
Brady Barnes,82.5,M-O,,154.22,,154.22,M,B,Single-ply,1,
Bob Baker,82.5,M-O,,145.15,,145.15,M,B,Single-ply,2,
John Regis,100,M-O,,183.7,,183.7,M,B,Single-ply,1,
Ryan Nielson,110,M-O,,206.38,,206.38,M,B,Single-ply,1,
Sean Anderson,125+,M-O,,181.44,,181.44,M,B,Single-ply,1,
Andy Watson,125,M-O,,190.51,,190.51,M,B,Single-ply,1,
Kris Grover,67.5,M-T3,,120.2,,120.2,M,B,Single-ply,1,
Vance Nakamura,60,M-M1,,97.52,,97.52,M,B,Single-ply,1,
Bob Baker,82.5,M-M1,,145.15,,145.15,M,B,Single-ply,1,
John Regis,100,M-M1,,183.7,,183.7,M,B,Single-ply,1,
Sean Anderson,110,M-M3,,181.44,,181.44,M,B,Single-ply,1,
